<svg xmlns="http://www.w3.org/2000/svg" viewBox="0 0 64 64" id="cloudy-day">
  <line x1="-2.36" x2="1.24" y1="28.77" y2="28.77" fill="none" stroke="#3c3b72" stroke-linecap="round" stroke-linejoin="round" stroke-width="3"></line>
  <line x1="20.56" x2="20.56" y1="5.84" y2="9.45" fill="none" stroke="#3c3b72" stroke-linecap="round" stroke-linejoin="round" stroke-width="3"></line>
  <line x1="4.35" x2="6.9" y1="12.56" y2="15.1" fill="none" stroke="#3c3b72" stroke-linecap="round" stroke-linejoin="round" stroke-width="3"></line>
  <line x1="6.9" x2="4.35" y1="42.43" y2="44.97" fill="none" stroke="#3c3b72" stroke-linecap="round" stroke-linejoin="round" stroke-width="3"></line>
  <line x1="36.77" x2="34.22" y1="12.56" y2="15.1" fill="none" stroke="#3c3b72" stroke-linecap="round" stroke-linejoin="round" stroke-width="3"></line>
  <circle cx="20.56" cy="28.77" r="12.49" fill="#ffe993" stroke="#3c3b72" stroke-linecap="round" stroke-linejoin="round" stroke-width="3"></circle>
  <path fill="#c4c8d1" stroke="#3c3b72" stroke-linecap="round" stroke-linejoin="round" stroke-width="3" d="M25.42,33.66a15.76,15.76,0,0,1,31.23.23h0A12.27,12.27,0,0,1,54.1,58.16H24.38a12.27,12.27,0,0,1,0-24.54c.35,0,.7,0,1,0"></path>
</svg>
